lab_0/gates_example/combinational_gates_muxed.vcd
$date
   Wed Oct  2 19:29:37 2019
$end
$version
  P.20160913
$end
$timescale
  1ps
$end
$scope module combinational_gates_muxed_tb $end
$scope module UUT $end
$var wire 1 ! sw [4] $end
$var wire 1 " sw [3] $end
$var wire 1 # sw [2] $end
$var wire 1 $ sw [1] $end
$var wire 1 % sw [0] $end
$var wire 1 & nand_out $end
$var wire 1 ' and_out $end
$var wire 1 ( nor_out $end
$var wire 1 ) or_out $end
$var wire 1 * xor_out $end
$var wire 1 + xnor_out $end
$var wire 1 , buff_out $end
$var wire 1 - not_out $end
$var wire 1 . MuxIn [7] $end
$var wire 1 / MuxIn [6] $end
$var wire 1 0 MuxIn [5] $end
$var wire 1 1 MuxIn [4] $end
$var wire 1 2 MuxIn [3] $end
$var wire 1 3 MuxIn [2] $end
$var wire 1 4 MuxIn [1] $end
$var wire 1 5 MuxIn [0] $end
$var wire 1 6 SelectIn [2] $end
$var wire 1 7 SelectIn [1] $end
$var wire 1 8 SelectIn [0] $end
$var reg 1 9 led $end
$upscope $end
$upscope $end
$enddefinitions $end
#0
$dumpvars
1(
0)
0*
1+
0,
1-
0#
0$
1&
0%
0'
0"
0!
19
15
04
13
02
01
10
0/
1.
08
07
06
$end
#5000
0(
1)
1*
0+
1,
0-
1%
09
05
14
03
12
11
00
#10000
0,
1-
1$
0%
19
15
04
#15000
0*
1+
1,
0-
0&
1%
1'
09
05
14
13
02
1/
0.
#20000
1(
0)
0,
1-
1#
0$
1&
0%
0'
15
04
01
10
0/
1.
18
#25000
0(
1)
1*
0+
1,
0-
1%
19
05
14
03
12
11
00
#30000
0,
1-
1$
0%
09
15
04
#35000
0*
1+
1,
0-
0&
1%
1'
19
05
14
13
02
1/
0.
#40000
1(
0)
0,
1-
0#
0$
1&
0%
0'
1"
15
04
01
10
0/
1.
08
17
#45000
0(
1)
1*
0+
1,
0-
1%
09
05
14
03
12
11
00
#50000
0,
1-
1$
0%
15
04
#55000
0*
1+
1,
0-
0&
1%
1'
19
05
14
13
02
1/
0.
#60000
1(
0)
0,
1-
1#
0$
1&
0%
0'
09
15
04
01
10
0/
1.
18
#65000
0(
1)
1*
0+
1,
0-
1%
19
05
14
03
12
11
00
#70000
0,
1-
1$
0%
15
04
#75000
0*
1+
1,
0-
0&
1%
1'
09
05
14
13
02
1/
0.
#80000
1(
0)
0,
1-
0#
0$
1&
0%
0'
0"
1!
15
04
01
10
0/
1.
08
07
16
#85000
0(
1)
1*
0+
1,
0-
1%
19
05
14
03
12
11
00
#90000
0,
1-
1$
0%
15
04
#95000
0*
1+
1,
0-
0&
1%
1'
05
14
13
02
1/
0.
#100000
1(
0)
0,
1-
1#
0$
1&
0%
0'
15
04
01
10
0/
1.
18
#105000
0(
1)
1*
0+
1,
0-
1%
09
05
14
03
12
11
00
#110000
0,
1-
1$
0%
15
04
#115000
0*
1+
1,
0-
0&
1%
1'
05
14
13
02
1/
0.
#120000
1(
0)
0,
1-
0#
0$
1&
0%
0'
1"
15
04
01
10
0/
1.
08
17
#125000
0(
1)
1*
0+
1,
0-
1%
05
14
03
12
11
00
#130000
0,
1-
1$
0%
15
04
#135000
0*
1+
1,
0-
0&
1%
1'
19
05
14
13
02
1/
0.
#140000
1(
0)
0,
1-
1#
0$
1&
0%
0'
15
04
01
10
0/
1.
18
#145000
0(
1)
1*
0+
1,
0-
1%
05
14
03
12
11
00
#150000
0,
1-
1$
0%
15
04
#155000
0*
1+
1,
0-
0&
1%
1'
09
05
14
13
02
1/
0.
